Dunedin Flows and Wastewater Concentration
…
(rain.data.tidy2 = rain.data.tidy %>% 
  select(SampleLocation, Station, date = `Date(NZST)`, avg_rain = `Amount(mm)`) %>% 
  group_by(SampleLocation) %>% 
  mutate(
    avg_rain.lag1 = lag(avg_rain),
    avg_rain.lag2 = lag(avg_rain, 2),
    avg_rain.lag3 = lag(avg_rain, 3),
    avg_rain.lag4 = lag(avg_rain, 4),
    avg_rain.lag5 = lag(avg_rain, 5),
    avg_rain.lag6 = lag(avg_rain, 6),
    avg_rain.lag7 = lag(avg_rain, 7),
    ))

# A tibble: 1,588 × 11
# Groups:   SampleLocation [3]
   SampleLo…¹ Station date       avg_r…² avg_r…³ avg_r…⁴ avg_r…⁵ avg_r…⁶ avg_r…⁷
   <chr>      <chr>   <date>       <dbl>   <dbl>   <dbl>   <dbl>   <dbl>   <dbl>
 1 OT_Dunedi… 15752   2021-07-01     0      NA      NA        NA      NA      NA
 2 OT_GreenI… 22692   2021-07-01     0.4    NA      NA        NA      NA      NA
 3 OT_Mosgiel 5361    2021-07-01     0      NA      NA        NA      NA      NA
 4 OT_Dunedi… 15752   2021-07-02     0       0      NA        NA      NA      NA
 5 OT_GreenI… 22692   2021-07-02     0.1     0.4    NA        NA      NA      NA
 6 OT_Mosgiel 5361    2021-07-02     0       0      NA        NA      NA      NA
 7 OT_Dunedi… 15752   2021-07-03     0       0       0        NA      NA      NA
 8 OT_GreenI… 22692   2021-07-03     0       0.1     0.4      NA      NA      NA
 9 OT_Mosgiel 5361    2021-07-03     0       0       0        NA      NA      NA
10 OT_Dunedi… 15752   2021-07-04     0       0       0         0      NA      NA
# … with 1,578 more rows, 2 more variables: avg_rain.lag6 <dbl>,
#   avg_rain.lag7 <dbl>, and abbreviated variable names ¹​SampleLocation,
#   ²​avg_rain, ³​avg_rain.lag1, ⁴​avg_rain.lag2, ⁵​avg_rain.lag3, ⁶​avg_rain.lag4,
#   ⁷​avg_rain.lag5
…
names(model_data) = unique(waste.data.dunedin$SampleLocation)

model_data[[1]]

# A tibble: 101 × 13
   SampleLo…¹ Date       sars_…² Station avg_r…³ avg_r…⁴ avg_r…⁵ avg_r…⁶ avg_r…⁷
   <chr>      <date>       <dbl> <chr>     <dbl>   <dbl>   <dbl>   <dbl>   <dbl>
 1 OT_Dunedi… 2021-12-29       0 15752       0      12.8     2.4     0       0  
 2 OT_Dunedi… 2022-01-05       0 15752       0       0       0       0       0  
 3 OT_Dunedi… 2022-01-10       0 15752       2.8     0       0.8     0.2     1  
 4 OT_Dunedi… 2022-01-13       0 15752       0.4     0.8     0       2.8     0  
 5 OT_Dunedi… 2022-01-17       0 15752       0       0       0       0       0.4
 6 OT_Dunedi… 2022-01-24       0 15752       0       0       0       0.8    12.6
 7 OT_Dunedi… 2022-01-27       0 15752       1.8     0       0       0       0  
 8 OT_Dunedi… 2022-01-31       0 15752       0.2     0.4     0       0.6     1.8
 9 OT_Dunedi… 2022-02-03       0 15752       1.2     1       0       0.2     0.4
10 OT_Dunedi… 2022-02-08       0 15752       0       0.2     0      14.6     8.6
# … with 91 more rows, 4 more variables: avg_rain.lag5 <dbl>,
#   avg_rain.lag6 <dbl>, avg_rain.lag7 <dbl>, daily_flow_rate_m3 <dbl>, and
#   abbreviated variable names ¹​SampleLocation, ²​sars_per_person, ³​avg_rain,
#   ⁴​avg_rain.lag1, ⁵​avg_rain.lag2, ⁶​avg_rain.lag3, ⁷​avg_rain.lag4
…
